{
  "project_info": {
    "project_number": "959915497975",
    "firebase_url": "https://gcp-tutorial-289613-26d0b.firebaseio.com",
    "project_id": "gcp-tutorial-289613-26d0b",
    "storage_bucket": "gcp-tutorial-289613-26d0b.appspot.com"
  },
  "client": [
    {
      "client_info": {
        "mobilesdk_app_id": "1:959915497975:android:1d794aee2eceecc7be36f2",
        "android_client_info": {
          "package_name": "apriliana.risqy.appx0f"
        }
      },
      "oauth_client": [
        {
          "client_id": "959915497975-2ajtmqlbg8fd9lppigbki3jka5os215s.apps.googleusercontent.com",
          "client_type": 3
        }
      ],
      "api_key": [
        {
          "current_key": "AIzaSyCqcDIHO7vHRSZm_SSSbxX2scOJDdNlODI"
        }
      ],
      "services": {
        "appinvite_service": {
          "other_platform_oauth_client": [
            {
              "client_id": "959915497975-2ajtmqlbg8fd9lppigbki3jka5os215s.apps.googleusercontent.com",
              "client_type": 3
            }
          ]
        }
      }
    },
    {
      "client_info": {
        "mobilesdk_app_id": "1:959915497975:android:fbc5253285a2b221be36f2",
        "android_client_info": {
          "package_name": "apriliana.risqy.cobaapp0xf"
        }
      },
      "oauth_client": [
        {
          "client_id": "959915497975-2ajtmqlbg8fd9lppigbki3jka5os215s.apps.googleusercontent.com",
          "client_type": 3
        }
      ],
      "api_key": [
        {
          "current_key": "AIzaSyCqcDIHO7vHRSZm_SSSbxX2scOJDdNlODI"
        }
      ],
      "services": {
        "appinvite_service": {
          "other_platform_oauth_client": [
            {
              "client_id": "959915497975-2ajtmqlbg8fd9lppigbki3jka5os215s.apps.googleusercontent.com",
              "client_type": 3
            }
          ]
        }
      }
    }
  ],
  "configuration_version": "1"
}